[
    {"id":1,
        "name":"Japanese Cookies",
        "price":"56",
        "image":"./images/Japanese Cookies.png"
    },
    {"id":2,
        "name":"Smoked Salamon",
        "price":"35",
        "image":"./images/Smoked Salmon.png",
        "details":"Smoked Salmon,Sushi Rice,Kiwi,Cheese"
    },
    {"id":28,
        "name":"Sausage Roll",
        "price":"7.50",
        "image":"./images/Sausage Roll.png",
        "details":"Dough,Mayonnaise,Tomato,Ketchup,Beef Sausage"
    },

  
    {"id":5,
        "name":"Pistachio Doughnut ",
        "price":"9.50",
        "image":"./images/Pistachio Doughnut.png"
    },
    {"id":3,
        "name":"Picachu",
        "price":"10.50",
        "image":"./images/Picachu.png"
      
    },
    {"id":6,
        "name":"Blueberry Bun",
        "price":"9.50",
        "image":"./images/Blueberry Bun.png"
    },
    {"id":7,
        "name":"Matcha Cake Roll",
        "price":"12.50",
        "image":"./images/Matcha Cake Roll.png"
    },
    {"id":8,
        "name":"Taru Tea",
        "price":"16",
        "image":"./images/Taru Tea.png"
    }
     
]